﻿1,128,88,39,110,36.5,1.057,37
7,137,90,41,0,32,0.391,39
0,123,72,0,0,36.3,0.258,52
1,106,76,0,0,37.5,0.197,26
6,190,92,0,0,35.5,0.278,66
2,88,58,26,16,28.4,0.766,22
9,170,74,31,0,44,0.403,43
9,89,62,0,0,22.5,0.142,33
10,101,76,48,180,32.9,0.171,63
2,122,70,27,0,36.8,0.34,27
5,121,72,23,112,26.2,0.245,30
1,126,60,0,0,30.1,0.349,47
1,93,70,31,0,30.4,0.315,23
